Sâu bùa vẽ: Phun <PRD>Padan 95WP</PRD> nồng độ 0,05-0,1%, hoặc dùng hỗn hợp 20ml <PRD>Decis 25EC</PRD>+1 lít <PRD>Bi58</PRD> rồi pha loãng với nước nồng độ 0,05-0,07% để phun.	<PRD>Padan 95WP</PRD>	<PRD>Decis 25EC</PRD>
Sâu bùa vẽ: Phun <PRD>Padan 95WP</PRD> nồng độ 0,05-0,1%, hoặc dùng hỗn hợp 20ml <PRD>Decis 25EC</PRD>+1 lít <PRD>Bi58</PRD> rồi pha loãng với nước nồng độ 0,05-0,07% để phun.	<PRD>Padan 95WP</PRD>	<PRD>Bi58</PRD>
Sâu bùa vẽ: Phun <PRD>Padan 95WP</PRD> nồng độ 0,05-0,1%, hoặc dùng hỗn hợp 20ml <PRD>Decis 25EC</PRD>+1 lít <PRD>Bi58</PRD> rồi pha loãng với nước nồng độ 0,05-0,07% để phun.	<PRD>Decis 25EC</PRD>	<PRD>Bi58</PRD>
