- Thành phần: <PCT>0-45%</PCT> cát, <PCT>0-45%</PCT> mùn, <PCT>50-100%</PCT> sét, với các hạt sét mịn kích thước < 0,002mm và hạt mùn kích thước 0.002-0.05mm	<PCT>0-45%</PCT>	<PCT>0-45%</PCT>
- Thành phần: <PCT>0-45%</PCT> cát, <PCT>0-45%</PCT> mùn, <PCT>50-100%</PCT> sét, với các hạt sét mịn kích thước < 0,002mm và hạt mùn kích thước 0.002-0.05mm	<PCT>0-45%</PCT>	<PCT>50-100%</PCT>
- Thành phần: <PCT>0-45%</PCT> cát, <PCT>0-45%</PCT> mùn, <PCT>50-100%</PCT> sét, với các hạt sét mịn kích thước < 0,002mm và hạt mùn kích thước 0.002-0.05mm	<PCT>0-45%</PCT>	<PCT>50-100%</PCT>
- Thành phần: <PCT>25-50%</PCT> cát, <PCT>30-50%</PCT> mùn, <PCT>10-30%</PCT> sét	<PCT>25-50%</PCT>	<PCT>30-50%</PCT>
- Thành phần: <PCT>25-50%</PCT> cát, <PCT>30-50%</PCT> mùn, <PCT>10-30%</PCT> sét	<PCT>25-50%</PCT>	<PCT>10-30%</PCT>
- Thành phần: <PCT>25-50%</PCT> cát, <PCT>30-50%</PCT> mùn, <PCT>10-30%</PCT> sét	<PCT>30-50%</PCT>	<PCT>10-30%</PCT>
